<?xml version="1.0" encoding="UTF-8" standalone="no"?>
<svg
   xmlns:lucid="lucid"
   xmlns:dc="http://purl.org/dc/elements/1.1/"
   xmlns:cc="http://creativecommons.org/ns#"
   xmlns:rdf="http://www.w3.org/1999/02/22-rdf-syntax-ns#"
   xmlns:svg="http://www.w3.org/2000/svg"
   xmlns="http://www.w3.org/2000/svg"
   xmlns:xlink="http://www.w3.org/1999/xlink"
   xmlns:sodipodi="http://sodipodi.sourceforge.net/DTD/sodipodi-0.dtd"
   xmlns:inkscape="http://www.inkscape.org/namespaces/inkscape"
   width="963.38196"
   height="548.00684"
   version="1.1"
   id="svg278"
   sodipodi:docname="11_1.svg"
   inkscape:version="1.0.1 (3bc2e813f5, 2020-09-07)">
  <metadata
     id="metadata284">
    <rdf:RDF>
      <cc:Work
         rdf:about="">
        <dc:format>image/svg+xml</dc:format>
        <dc:type
           rdf:resource="http://purl.org/dc/dcmitype/StillImage" />
        <dc:title></dc:title>
      </cc:Work>
    </rdf:RDF>
  </metadata>
  <defs
     id="defs282">
    <clipPath
       clipPathUnits="userSpaceOnUse"
       id="clipPath1111">
      <rect
         style="fill:#0000ff;fill-rule:evenodd"
         id="rect1113"
         width="963.38196"
         height="548.00684"
         x="-1456.269"
         y="-847.14746" />
    </clipPath>
  </defs>
  <sodipodi:namedview
     pagecolor="#ffffff"
     bordercolor="#666666"
     borderopacity="1"
     objecttolerance="10"
     gridtolerance="10"
     guidetolerance="10"
     inkscape:pageopacity="0"
     inkscape:pageshadow="2"
     inkscape:window-width="1366"
     inkscape:window-height="768"
     id="namedview280"
     showgrid="false"
     inkscape:zoom="0.29138143"
     inkscape:cx="567.28615"
     inkscape:cy="281.48419"
     inkscape:window-x="0"
     inkscape:window-y="0"
     inkscape:window-maximized="1"
     inkscape:current-layer="svg278" />
  <g
     transform="translate(1456.269,847.14747)"
     lucid:page-tab-id="0_0"
     id="g276"
     clip-path="url(#clipPath1111)">
    <path
       d="M -1806.4,-1259.2 H 64 V 64 h -1870.4 z"
       fill="#ffffff"
       id="path2" />
    <path
       d="m -753.07,-518.76 c 0,-3.3 2.7,-6 6,-6 h 228 c 3.32,0 6,2.7 6,6 v 48 c 0,3.32 -2.68,6 -6,6 h -228 c -3.3,0 -6,-2.68 -6,-6 z"
       fill="none"
       id="path4" />
    <use
       xlink:href="#a"
       transform="translate(-639.02346,-490.31111)"
       id="use6"
       x="0"
       y="0"
       width="100%"
       height="100%" />
    <path
       d="m -760.18,-758.76 c 0,-3.3 2.7,-6 6,-6 h 228 c 3.32,0 6,2.7 6,6 v 48 c 0,3.32 -2.68,6 -6,6 h -228 c -3.3,0 -6,-2.68 -6,-6 z"
       fill="none"
       id="path8" />
    <use
       xlink:href="#b"
       transform="translate(-707.12222,-730.31111)"
       id="use10"
       x="0"
       y="0"
       width="100%"
       height="100%" />
    <path
       d="m -560,-614 c 0,-3.3 2.7,-6 6,-6 h 40.7 c 3.32,0 6,2.7 6,6 v 48 c 0,3.3 -2.68,6 -6,6 H -554 c -3.3,0 -6,-2.7 -6,-6 z"
       fill="none"
       id="path12" />
    <use
       xlink:href="#c"
       transform="translate(-548.31481,-585.55556)"
       id="use14"
       x="0"
       y="0"
       width="100%"
       height="100%" />
    <path
       d="m -1500,-634 c 0,-3.3 2.7,-6 6,-6 h 228 c 3.3,0 6,2.7 6,6 v 48 c 0,3.3 -2.7,6 -6,6 h -228 c -3.3,0 -6,-2.7 -6,-6 z"
       fill="none"
       id="path16" />
    <use
       xlink:href="#d"
       transform="translate(-1424.3827,-605.55556)"
       id="use18"
       x="0"
       y="0"
       width="100%"
       height="100%" />
    <path
       d="m -1399,-600 h 820.5 m -820.47,0 h -1.03"
       stroke="#5e5e5e"
       stroke-width="2"
       fill="none"
       id="path20" />
    <path
       d="m -563.24,-600 -14.26,4.64 v -9.28 z"
       stroke="#5e5e5e"
       stroke-width="2"
       fill="#5e5e5e"
       id="path22" />
    <path
       d="m -1380,-634 c 0,-3.3 2.7,-6 6,-6 h 228 c 3.3,0 6,2.7 6,6 v 48 c 0,3.3 -2.7,6 -6,6 h -228 c -3.3,0 -6,-2.7 -6,-6 z"
       fill="none"
       id="path24" />
    <use
       xlink:href="#e"
       transform="translate(-1304.3827,-605.55556)"
       id="use26"
       x="0"
       y="0"
       width="100%"
       height="100%" />
    <path
       d="m -1260,-634 c 0,-3.3 2.7,-6 6,-6 h 228 c 3.3,0 6,2.7 6,6 v 48 c 0,3.3 -2.7,6 -6,6 h -228 c -3.3,0 -6,-2.7 -6,-6 z"
       fill="none"
       id="path28" />
    <use
       xlink:href="#f"
       transform="translate(-1184.3827,-605.55556)"
       id="use30"
       x="0"
       y="0"
       width="100%"
       height="100%" />
    <path
       d="m -1140,-634 c 0,-3.3 2.7,-6 6,-6 h 228 c 3.3,0 6,2.7 6,6 v 48 c 0,3.3 -2.7,6 -6,6 h -228 c -3.3,0 -6,-2.7 -6,-6 z"
       fill="none"
       id="path32" />
    <use
       xlink:href="#g"
       transform="translate(-1064.3827,-605.55556)"
       id="use34"
       x="0"
       y="0"
       width="100%"
       height="100%" />
    <path
       d="m -1020,-634 c 0,-3.3 2.7,-6 6,-6 h 228 c 3.3,0 6,2.7 6,6 v 48 c 0,3.3 -2.7,6 -6,6 h -228 c -3.3,0 -6,-2.7 -6,-6 z"
       fill="none"
       id="path36" />
    <use
       xlink:href="#h"
       transform="translate(-944.38272,-605.55556)"
       id="use38"
       x="0"
       y="0"
       width="100%"
       height="100%" />
    <path
       d="m -900,-634 c 0,-3.3 2.7,-6 6,-6 h 228 c 3.3,0 6,2.7 6,6 v 48 c 0,3.3 -2.7,6 -6,6 h -228 c -3.3,0 -6,-2.7 -6,-6 z"
       fill="none"
       id="path40" />
    <use
       xlink:href="#i"
       transform="translate(-824.38272,-605.55556)"
       id="use42"
       x="0"
       y="0"
       width="100%"
       height="100%" />
    <path
       d="m -700,-634 c 0,-3.3 2.7,-6 6,-6 h 88 c 3.3,0 6,2.7 6,6 v 48 c 0,3.3 -2.7,6 -6,6 h -88 c -3.3,0 -6,-2.7 -6,-6 z"
       fill="none"
       id="path44" />
    <use
       xlink:href="#j"
       transform="translate(-694.38272,-605.55556)"
       id="use46"
       x="0"
       y="0"
       width="100%"
       height="100%" />
    <path
       d="m -640,-601 v -80.5 m 0,80.47 v 1.03"
       stroke="#5e5e5e"
       stroke-width="2"
       fill="none"
       id="path48" />
    <path
       d="m -640,-696.76 4.64,14.26 h -9.28 z"
       stroke="#5e5e5e"
       stroke-width="2"
       fill="#5e5e5e"
       id="path50" />
    <path
       d="m -900,-599 v 60.5"
       stroke="#5e5e5e"
       stroke-width="2"
       fill="none"
       id="path52" />
    <path
       fill="#5e5e5e"
       id="path54"
       d="" />
    <path
       d="m -900,-523.24 -4.64,-14.26 h 9.28 z"
       stroke="#5e5e5e"
       stroke-width="2"
       fill="#5e5e5e"
       id="path56" />
    <path
       d="m -1020,-596.78 v 58.28"
       stroke="#5e5e5e"
       stroke-width="2"
       fill="none"
       id="path58" />
    <path
       fill="#5e5e5e"
       id="path60"
       d="" />
    <path
       d="m -1020,-523.24 -4.64,-14.26 h 9.28 z"
       stroke="#5e5e5e"
       stroke-width="2"
       fill="#5e5e5e"
       id="path62" />
    <path
       d="m -1140,-595.1 v 56.6"
       stroke="#5e5e5e"
       stroke-width="2"
       fill="none"
       id="path64" />
    <path
       fill="#5e5e5e"
       id="path66"
       d="" />
    <path
       d="m -1140,-523.24 -4.64,-14.26 h 9.28 z"
       stroke="#5e5e5e"
       stroke-width="2"
       fill="#5e5e5e"
       id="path68" />
    <path
       d="m -1260,-599.45 v 54.28"
       stroke="#5e5e5e"
       stroke-width="2"
       fill="none"
       id="path70" />
    <path
       fill="#5e5e5e"
       id="path72"
       d="" />
    <path
       d="m -1260,-529.9 -4.64,-14.27 h 9.28 z"
       stroke="#5e5e5e"
       stroke-width="2"
       fill="#5e5e5e"
       id="path74" />
    <path
       d="m -1259.5,-526.67 h 359 m -359,0 h -0.5 m 359.5,0 h 0.5"
       stroke="#5e5e5e"
       fill="none"
       id="path76" />
    <path
       d="m -1300,-520 h 85.84 v 27.04 H -1300 Z"
       fill="#ffffff"
       fill-opacity="0"
       id="path78" />
    <path
       d="m -1281.6,-499.76 -0.04,0.4 h -4.3 l -3.8,-8 c -0.25,0.04 -0.53,0.06 -0.74,0.06 -0.35,0 -0.6,-0.05 -0.96,-0.1 l -1.58,6.07 c -0.05,0.2 -0.07,0.38 -0.07,0.58 0,0.6 0.46,1 1.94,1 h 0.48 l -0.1,0.4 h -8.26 l 0.1,-0.4 h 0.4 c 1.94,0 2.45,-0.72 2.68,-1.58 l 3.15,-12.62 c 0.04,-0.2 0.12,-0.43 0.12,-0.64 0,-0.52 -0.44,-0.93 -1.96,-0.93 h -0.5 l 0.1,-0.4 h 6.88 c 4.06,0 5.48,1.67 5.48,3.83 0,2.1 -1.8,3.8 -4.52,4.35 l 2.92,5.8 c 0.48,1 1.14,2.07 2.6,2.2 m -8,-15.17 -1.63,6.6 c 0.32,0.08 0.57,0.1 0.8,0.1 3.38,0 4.85,-1.46 4.85,-3.6 0,-2.74 -1.58,-3.17 -3.18,-3.17 -0.35,0 -0.58,0.03 -0.86,0.08 m 15.47,19.37 h -4.95 v -0.26 c 1.32,-0.07 1.7,-0.44 1.7,-1.43 v -8.06 c 0,-0.6 -0.16,-0.87 -0.54,-0.87 -0.18,0 -0.48,0.1 -0.8,0.2 l -0.5,0.2 v -0.26 l 3.22,-1.63 0.17,0.05 v 10.7 c 0,0.78 0.35,1.1 1.7,1.1 v 0.27 m 27.69,-11.96 h -14.96 v -1.67 h 14.96 v 1.67 m 0,5.08 h -14.96 v -1.67 h 14.96 v 1.67 m 14.98,-13.13 v 6.25 c 3.07,1.65 3.7,2.3 4.4,3.33 0.35,0.53 0.53,1.34 0.53,2.28 0,2.95 -2,3.9 -4.93,4.32 v 2.2 h -0.86 v -2.2 c -2.2,0 -3.33,-0.36 -4.73,-1.3 v -3.3 h 0.38 c 0.54,2.54 2.1,3.9 4.35,3.9 v -7.17 c -3.5,-1.98 -4.52,-3.02 -4.52,-5.16 0,-2.54 2.15,-3.68 4.52,-3.83 v -1.6 h 0.86 v 1.6 c 2.06,0.12 3.3,0.55 4.1,1.33 v 2.82 h -0.4 c -0.5,-2.1 -1.67,-3.22 -3.7,-3.48 m -0.86,5.85 v -5.85 c -1.8,0.36 -2.65,1.38 -2.65,2.67 0,1.12 0.5,1.73 2.65,3.18 m 0.86,2.9 v 6.72 c 2.06,-0.43 2.9,-1.22 2.9,-3.02 0,-1.55 -0.6,-2.34 -2.9,-3.7 m 12.19,3.29 h -0.43 c 0.02,-1.03 0.22,-2.3 1.1,-4.5 0.67,-1.63 1.3,-3.23 1.3,-4.76 0,-1.75 -1.2,-3 -2.76,-3 -1.22,0 -2.4,0.77 -2.4,1.58 0,0.94 0.98,1.04 0.98,1.88 0,0.63 -0.4,1.1 -1.04,1.1 -0.7,0 -1.22,-0.64 -1.22,-1.68 0,-2.1 1.73,-3.64 4.16,-3.64 2.47,0 4.62,1.55 4.62,4.02 0,1.55 -0.48,2.4 -2.66,5 -0.92,1.1 -1.37,2.26 -1.65,4 z m 1.17,3 c 0,0.74 -0.56,1.35 -1.32,1.35 -0.87,0 -1.38,-0.63 -1.38,-1.34 0,-0.75 0.6,-1.34 1.38,-1.34 0.7,0 1.32,0.64 1.32,1.35"
       id="path80" />
    <path
       d="m -1182.92,-520 h 85.84 v 27.04 h -85.84 z"
       fill="#ffffff"
       fill-opacity="0"
       id="path82" />
    <path
       d="m -1164.5,-499.76 -0.06,0.4 h -4.3 l -3.8,-8 c -0.26,0.04 -0.54,0.06 -0.74,0.06 -0.36,0 -0.6,-0.05 -0.96,-0.1 l -1.58,6.07 c -0.05,0.2 -0.08,0.38 -0.08,0.58 0,0.6 0.46,1 1.93,1 h 0.5 l -0.1,0.4 h -8.26 l 0.1,-0.4 h 0.4 c 1.94,0 2.45,-0.72 2.68,-1.58 l 3.15,-12.62 c 0.05,-0.2 0.12,-0.43 0.12,-0.64 0,-0.52 -0.44,-0.93 -1.96,-0.93 h -0.5 l 0.1,-0.4 h 6.87 c 4.08,0 5.5,1.67 5.5,3.83 0,2.1 -1.8,3.8 -4.52,4.35 l 2.92,5.8 c 0.48,1 1.14,2.07 2.6,2.2 m -8,-15.17 -1.64,6.6 c 0.33,0.08 0.6,0.1 0.82,0.1 3.37,0 4.85,-1.46 4.85,-3.6 0,-2.74 -1.58,-3.17 -3.18,-3.17 -0.35,0 -0.58,0.03 -0.86,0.08 m 16.9,16.9 -0.98,2.47 h -7.02 v -0.2 l 3.2,-3.4 c 1.68,-1.78 2.33,-3.15 2.33,-4.67 0,-1.64 -0.97,-2.53 -2.5,-2.53 -1.3,0 -1.92,0.57 -2.64,2.33 l -0.4,-0.1 c 0.4,-2.1 1.54,-3.56 3.75,-3.56 2.03,0 3.32,1.38 3.32,3.16 0,1.42 -0.7,2.76 -2.3,4.45 l -2.96,3.16 h 4.2 c 0.76,0 1.14,-0.2 1.73,-1.2 m 26.5,-9.39 h -14.95 v -1.67 h 14.95 v 1.67 m 0,5.08 h -14.95 v -1.67 h 14.95 v 1.67 m 14.99,-13.13 v 6.25 c 3.07,1.65 3.7,2.3 4.4,3.33 0.35,0.53 0.52,1.34 0.52,2.28 0,2.95 -2,3.9 -4.92,4.32 v 2.2 h -0.87 v -2.2 c -2.2,0 -3.32,-0.36 -4.72,-1.3 v -3.3 h 0.38 c 0.54,2.54 2.12,3.9 4.35,3.9 v -7.17 c -3.5,-1.98 -4.52,-3.02 -4.52,-5.16 0,-2.54 2.16,-3.68 4.52,-3.83 v -1.6 h 0.87 v 1.6 c 2.05,0.12 3.3,0.55 4.08,1.33 v 2.82 h -0.38 c -0.5,-2.1 -1.67,-3.22 -3.7,-3.48 m -0.87,5.85 v -5.85 c -1.8,0.36 -2.64,1.38 -2.64,2.67 0,1.12 0.52,1.73 2.65,3.18 m 0.87,2.9 v 6.72 c 2.05,-0.43 2.9,-1.22 2.9,-3.02 0,-1.55 -0.6,-2.34 -2.9,-3.7 m 12.16,3.29 h -0.43 c 0.03,-1.03 0.23,-2.3 1.12,-4.5 0.65,-1.63 1.3,-3.23 1.3,-4.76 0,-1.75 -1.23,-3 -2.78,-3 -1.22,0 -2.4,0.77 -2.4,1.58 0,0.94 0.98,1.04 0.98,1.88 0,0.63 -0.4,1.1 -1.04,1.1 -0.72,0 -1.22,-0.64 -1.22,-1.68 0,-2.1 1.72,-3.64 4.16,-3.64 2.46,0 4.62,1.55 4.62,4.02 0,1.55 -0.48,2.4 -2.66,5 -0.92,1.1 -1.38,2.26 -1.65,4 z m 1.17,3 c 0,0.74 -0.56,1.35 -1.32,1.35 -0.86,0 -1.37,-0.63 -1.37,-1.34 0,-0.75 0.6,-1.34 1.37,-1.34 0.7,0 1.32,0.64 1.32,1.35"
       id="path84" />
    <path
       d="m -1062.92,-520 h 85.84 v 27.04 h -85.84 z"
       fill="#ffffff"
       fill-opacity="0"
       id="path86" />
    <path
       d="m -1044.5,-499.76 -0.06,0.4 h -4.3 l -3.8,-8 c -0.26,0.04 -0.54,0.06 -0.74,0.06 -0.36,0 -0.6,-0.05 -0.96,-0.1 l -1.58,6.07 c -0.05,0.2 -0.08,0.38 -0.08,0.58 0,0.6 0.46,1 1.93,1 h 0.5 l -0.1,0.4 h -8.26 l 0.1,-0.4 h 0.4 c 1.94,0 2.45,-0.72 2.68,-1.58 l 3.15,-12.62 c 0.05,-0.2 0.12,-0.43 0.12,-0.64 0,-0.52 -0.44,-0.93 -1.96,-0.93 h -0.5 l 0.1,-0.4 h 6.87 c 4.08,0 5.5,1.67 5.5,3.83 0,2.1 -1.8,3.8 -4.52,4.35 l 2.92,5.8 c 0.48,1 1.14,2.07 2.6,2.2 m -8,-15.17 -1.64,6.6 c 0.33,0.08 0.6,0.1 0.82,0.1 3.37,0 4.85,-1.46 4.85,-3.6 0,-2.74 -1.58,-3.17 -3.18,-3.17 -0.35,0 -0.58,0.03 -0.86,0.08 m 9.47,10.22 -0.3,-0.07 c 0.53,-1.7 1.66,-2.9 3.53,-2.9 1.67,0 2.8,0.98 2.8,2.45 0,0.86 -0.46,1.76 -1.67,2.48 0.8,0.34 1.12,0.55 1.5,0.95 0.5,0.55 0.78,1.38 0.78,2.3 0,0.96 -0.3,1.84 -0.8,2.53 -0.87,1.15 -2.58,1.67 -4.18,1.67 -1.3,0 -2,-0.38 -2,-1.03 0,-0.37 0.3,-0.64 0.73,-0.64 0.3,0 0.6,0.1 1.1,0.46 0.66,0.47 1.03,0.56 1.54,0.56 1.3,0 2.32,-1.22 2.32,-2.75 0,-1.36 -0.63,-2.24 -1.87,-2.6 -0.4,-0.13 -0.8,-0.18 -1.83,-0.18 v -0.25 c 0.68,-0.23 1.15,-0.43 1.5,-0.65 0.9,-0.5 1.46,-1.3 1.46,-2.4 0,-1.22 -0.75,-1.83 -1.93,-1.83 -1.12,0 -1.94,0.57 -2.68,1.9 m 33.66,-2.8 h -14.95 v -1.67 h 14.95 v 1.67 m 0,5.08 h -14.95 v -1.67 h 14.95 v 1.67 m 14.99,-13.13 v 6.25 c 3.07,1.65 3.7,2.3 4.4,3.33 0.35,0.53 0.52,1.34 0.52,2.28 0,2.95 -2,3.9 -4.92,4.32 v 2.2 h -0.87 v -2.2 c -2.2,0 -3.32,-0.36 -4.72,-1.3 v -3.3 h 0.38 c 0.54,2.54 2.12,3.9 4.35,3.9 v -7.17 c -3.5,-1.98 -4.52,-3.02 -4.52,-5.16 0,-2.54 2.16,-3.68 4.52,-3.83 v -1.6 h 0.87 v 1.6 c 2.05,0.12 3.3,0.55 4.08,1.33 v 2.82 h -0.38 c -0.5,-2.1 -1.67,-3.22 -3.7,-3.48 m -0.87,5.85 v -5.85 c -1.8,0.36 -2.64,1.38 -2.64,2.67 0,1.12 0.52,1.73 2.65,3.18 m 0.87,2.9 v 6.72 c 2.05,-0.43 2.9,-1.22 2.9,-3.02 0,-1.55 -0.6,-2.34 -2.9,-3.7 m 12.16,3.29 h -0.43 c 0.03,-1.03 0.23,-2.3 1.12,-4.5 0.65,-1.63 1.3,-3.23 1.3,-4.76 0,-1.75 -1.23,-3 -2.78,-3 -1.22,0 -2.4,0.77 -2.4,1.58 0,0.94 0.98,1.04 0.98,1.88 0,0.63 -0.4,1.1 -1.04,1.1 -0.72,0 -1.22,-0.64 -1.22,-1.68 0,-2.1 1.72,-3.64 4.16,-3.64 2.46,0 4.62,1.55 4.62,4.02 0,1.55 -0.48,2.4 -2.66,5 -0.92,1.1 -1.38,2.26 -1.65,4 z m 1.17,3 c 0,0.74 -0.56,1.35 -1.32,1.35 -0.86,0 -1.37,-0.63 -1.37,-1.34 0,-0.75 0.6,-1.34 1.37,-1.34 0.7,0 1.32,0.64 1.32,1.35"
       id="path88" />
    <path
       d="m -942.92,-520 h 85.84 v 27.04 h -85.84 z"
       fill="#ffffff"
       fill-opacity="0"
       id="path90" />
    <path
       d="m -924.5,-499.76 -0.06,0.4 h -4.3 l -3.8,-8 c -0.26,0.04 -0.54,0.06 -0.74,0.06 -0.36,0 -0.6,-0.05 -0.96,-0.1 l -1.58,6.07 c -0.05,0.2 -0.08,0.38 -0.08,0.58 0,0.6 0.46,1 1.93,1 h 0.5 l -0.1,0.4 h -8.26 l 0.1,-0.4 h 0.4 c 1.94,0 2.45,-0.72 2.68,-1.58 l 3.15,-12.62 c 0.05,-0.2 0.12,-0.43 0.12,-0.64 0,-0.52 -0.44,-0.93 -1.96,-0.93 h -0.5 l 0.1,-0.4 h 6.87 c 4.08,0 5.5,1.67 5.5,3.83 0,2.1 -1.8,3.8 -4.52,4.35 l 2.92,5.8 c 0.48,1 1.14,2.07 2.6,2.2 m -8,-15.17 -1.64,6.6 c 0.33,0.08 0.6,0.1 0.82,0.1 3.37,0 4.85,-1.46 4.85,-3.6 0,-2.74 -1.58,-3.17 -3.18,-3.17 -0.35,0 -0.58,0.03 -0.86,0.08 m 16.87,16.38 h -1.85 v 3 h -1.4 v -3 h -5.03 v -1.15 l 5.63,-8 h 0.8 v 8 h 1.84 v 1.15 m -3.25,-1.15 v -6.16 l -4.3,6.16 h 4.3 m 29.52,-7.81 h -14.95 v -1.67 h 14.95 v 1.67 m 0,5.08 h -14.95 v -1.67 h 14.95 v 1.67 m 14.99,-13.13 v 6.25 c 3.07,1.65 3.7,2.3 4.4,3.33 0.35,0.53 0.52,1.34 0.52,2.28 0,2.95 -2,3.9 -4.92,4.32 v 2.2 h -0.87 v -2.2 c -2.2,0 -3.32,-0.36 -4.72,-1.3 v -3.3 h 0.38 c 0.54,2.54 2.12,3.9 4.35,3.9 v -7.17 c -3.5,-1.98 -4.52,-3.02 -4.52,-5.16 0,-2.54 2.16,-3.68 4.52,-3.83 v -1.6 h 0.87 v 1.6 c 2.05,0.12 3.3,0.55 4.08,1.33 v 2.82 h -0.38 c -0.5,-2.1 -1.67,-3.22 -3.7,-3.48 m -0.87,5.85 v -5.85 c -1.8,0.36 -2.64,1.38 -2.64,2.67 0,1.12 0.52,1.73 2.65,3.18 m 0.87,2.9 v 6.72 c 2.05,-0.43 2.9,-1.22 2.9,-3.02 0,-1.55 -0.6,-2.34 -2.9,-3.7 m 12.16,3.29 h -0.43 c 0.03,-1.03 0.23,-2.3 1.12,-4.5 0.65,-1.63 1.3,-3.23 1.3,-4.76 0,-1.75 -1.23,-3 -2.78,-3 -1.22,0 -2.4,0.77 -2.4,1.58 0,0.94 0.98,1.04 0.98,1.88 0,0.63 -0.4,1.1 -1.04,1.1 -0.72,0 -1.22,-0.64 -1.22,-1.68 0,-2.1 1.72,-3.64 4.16,-3.64 2.46,0 4.62,1.55 4.62,4.02 0,1.55 -0.48,2.4 -2.66,5 -0.92,1.1 -1.38,2.26 -1.65,4 z m 1.17,3 c 0,0.74 -0.56,1.35 -1.32,1.35 -0.86,0 -1.37,-0.63 -1.37,-1.34 0,-0.75 0.6,-1.34 1.37,-1.34 0.7,0 1.32,0.64 1.32,1.35"
       id="path92" />
    <path
       d="m -636.62,-599 v 8.67 m 0,8.66 v 17.34 m 0,8.66 v 17.34 m 0,8.66 v 8.67 m 0,-77.97 V -600 m 0,78.97 v 1.03"
       stroke="#5e5e5e"
       stroke-width="2"
       fill="none"
       id="path94" />
    <path
       d="m -1256.5,-492.14 5.74,8.22 m 5.93,8.07 4.66,6.13 7.88,9.5 m 6.7,7.43 1.67,1.85 8.06,8.2 4.42,4.14 m 7.46,6.68 4.45,3.83 8.4,6.64 2.8,2.04 m 8.2,5.77 6.6,4.38 9.38,5.65 1.02,0.56 m 8.78,4.8 0.08,0.05 10.52,5.18 7.52,3.33 m 9.25,3.84 6.75,2.66 12.07,4.18 m 9.58,2.93 6.8,2.05 12.54,3.2 m 9.76,2.23 14.28,3 5.37,0.9 m 9.88,1.65 8,1.33 11.83,1.47 m 9.94,1.23 6.75,0.83 13.2,1.06 m 9.98,0.82 13.55,1.1 6.43,0.34 m 10,0.53 0.8,0.04 19.24,0.5 m 10,0.28 20.04,0.54 m 10,0.27 4.62,0.1 15.42,-0.24 m 10.02,-0.16 11.04,-0.18 8.98,-0.53 m 10,-0.6 7.23,-0.42 12.72,-1.3 m 9.95,-1.08 14.7,-2.12 5.1,-0.95 m 9.84,-1.87 11.78,-2.7 7.67,-2.12 m 9.58,-2.93 3.5,-1.1 8.85,-3.27 6.4,-2.66 m 9.1,-4.16 0.08,-0.02 6.94,-3.6 6.48,-3.72 3.95,-2.48 m 8.3,-5.62 5.1,-3.85 5.24,-4.3 5.02,-4.48 0.08,-0.1 m 7.08,-7.08 2.32,-2.45 4.5,-5.2 4.4,-5.5 1.6,-2.22 m 5.74,-8.2 1.1,-1.66 4.08,-6.68 0.1,-0.2"
       stroke="#c92d39"
       stroke-width="2"
       fill="none"
       id="path96" />
    <path
       d="m -1255.66,-492.7 -1.64,1.16 -1,-1.42 h 2.45 z"
       fill="#c92d39"
       id="path98" />
    <path
       d="m -634.56,-461.88 -2.47,14.8 -8.23,-4.3 z"
       stroke="#c92d39"
       stroke-width="2"
       fill="#c92d39"
       id="path100" />
    <defs
       id="defs274">
      <path
         fill="#333333"
         d="m 101,-234 c -31,-9 -42,10 -38,44 h 38 v 23 H 63 V 0 H 32 V -167 H 5 v -23 h 27 c -7,-52 17,-82 69,-68 v 24"
         id="k" />
      <g
         id="a">
        <use
           transform="scale(0.0617284)"
           xlink:href="#k"
           id="use103"
           x="0"
           y="0"
           width="100%"
           height="100%" />
        <use
           transform="matrix(0.0617284,0,0,0.0617284,5.7407407,0)"
           xlink:href="#k"
           id="use105"
           x="0"
           y="0"
           width="100%"
           height="100%" />
      </g>
      <path
         fill="#333333"
         d="M 137,0 H 103 L 2,-248 h 35 l 83,218 83,-218 h 36"
         id="l" />
      <path
         fill="#333333"
         d="m 63,-220 v 92 h 138 v 28 H 63 V 0 H 30 v -248 h 175 v 28 H 63"
         id="m" />
      <path
         fill="#333333"
         d="m 18,-150 v -26 h 174 v 26 z m 0,90 v -26 h 174 v 26 H 18"
         id="n" />
      <path
         fill="#333333"
         d="m 194,-70 c 0,46 -34,64 -81,66 V 25 H 91 V -4 C 42,-5 12,-27 4,-67 l 30,-6 c 5,28 25,41 57,43 v -87 c -38,-9 -76,-20 -76,-67 1,-42 33,-58 76,-59 v -23 h 22 v 23 c 45,0 67,20 76,56 l -31,6 c -5,-23 -18,-35 -45,-37 v 78 c 41,10 81,20 81,70 z m -81,41 c 51,7 71,-66 19,-77 -6,-2 -12,-4 -19,-6 z M 91,-219 c -47,-6 -63,57 -18,69 6,2 12,3 18,5 v -74"
         id="o" />
      <path
         fill="#333333"
         d="m 99,-251 c 64,0 84,50 84,122 C 183,-37 130,33 47,-8 33,-15 27,-31 22,-48 l 30,-5 c 6,39 69,39 84,7 9,-19 16,-44 16,-74 -10,22 -31,35 -62,35 -49,0 -73,-33 -73,-83 0,-54 28,-83 82,-83 z m -1,141 c 31,-1 51,-18 51,-49 0,-36 -14,-67 -51,-67 -34,0 -49,23 -49,58 0,34 15,58 49,58"
         id="p" />
      <path
         fill="#333333"
         d="m 101,-251 c 68,0 85,55 85,127 0,72 -20,128 -86,128 -67,0 -86,-56 -86,-128 0,-73 17,-127 87,-127 z m -1,229 c 47,0 54,-49 54,-102 0,-53 -4,-102 -53,-102 -51,0 -55,48 -55,102 0,53 5,102 54,102"
         id="q" />
      <path
         fill="#333333"
         d="M 33,0 V -38 H 67 V 0 H 33"
         id="r" />
      <g
         id="b">
        <use
           transform="scale(0.0617284)"
           xlink:href="#l"
           id="use115"
           x="0"
           y="0"
           width="100%"
           height="100%" />
        <use
           transform="matrix(0.0617284,0,0,0.0617284,14.814815,0)"
           xlink:href="#m"
           id="use117"
           x="0"
           y="0"
           width="100%"
           height="100%" />
        <use
           transform="matrix(0.0617284,0,0,0.0617284,28.333333,0)"
           xlink:href="#n"
           id="use119"
           x="0"
           y="0"
           width="100%"
           height="100%" />
        <use
           transform="matrix(0.0617284,0,0,0.0617284,41.296296,0)"
           xlink:href="#o"
           id="use121"
           x="0"
           y="0"
           width="100%"
           height="100%" />
        <use
           transform="matrix(0.0617284,0,0,0.0617284,53.641975,0)"
           xlink:href="#p"
           id="use123"
           x="0"
           y="0"
           width="100%"
           height="100%" />
        <use
           transform="matrix(0.0617284,0,0,0.0617284,65.987654,0)"
           xlink:href="#q"
           id="use125"
           x="0"
           y="0"
           width="100%"
           height="100%" />
        <use
           transform="matrix(0.0617284,0,0,0.0617284,78.333333,0)"
           xlink:href="#q"
           id="use127"
           x="0"
           y="0"
           width="100%"
           height="100%" />
        <use
           transform="matrix(0.0617284,0,0,0.0617284,90.679012,0)"
           xlink:href="#r"
           id="use129"
           x="0"
           y="0"
           width="100%"
           height="100%" />
        <use
           transform="matrix(0.0617284,0,0,0.0617284,96.851852,0)"
           xlink:href="#q"
           id="use131"
           x="0"
           y="0"
           width="100%"
           height="100%" />
        <use
           transform="matrix(0.0617284,0,0,0.0617284,109.19753,0)"
           xlink:href="#q"
           id="use133"
           x="0"
           y="0"
           width="100%"
           height="100%" />
        <use
           transform="matrix(0.0617284,0,0,0.0617284,121.54321,0)"
           xlink:href="#q"
           id="use135"
           x="0"
           y="0"
           width="100%"
           height="100%" />
      </g>
      <path
         fill="#333333"
         d="m 115,-194 c 55,1 70,41 70,98 C 185,-39 169,2 115,4 84,4 66,-9 55,-30 L 56,75 H 24 l -1,-265 h 31 l 2,30 c 10,-21 28,-34 59,-34 z m -8,174 c 40,0 45,-34 45,-75 0,-41 -6,-73 -45,-74 -42,0 -51,32 -51,76 0,43 10,73 51,73"
         id="s" />
      <path
         fill="#333333"
         d="m 59,-47 c -2,24 18,29 38,22 V -1 C 64,9 27,4 27,-40 V -167 H 5 v -23 h 24 l 9,-43 h 21 v 43 h 35 v 23 H 59 v 120"
         id="t" />
      <path
         fill="#333333"
         d="M 108,0 H 70 L 1,-190 h 34 l 54,165 56,-165 h 34"
         id="u" />
      <g
         id="c">
        <use
           transform="scale(0.0617284)"
           xlink:href="#s"
           id="use141"
           x="0"
           y="0"
           width="100%"
           height="100%" />
        <use
           transform="matrix(0.0617284,0,0,0.0617284,12.345679,0)"
           xlink:href="#t"
           id="use143"
           x="0"
           y="0"
           width="100%"
           height="100%" />
        <use
           transform="matrix(0.0617284,0,0,0.0617284,18.518519,0)"
           xlink:href="#u"
           id="use145"
           x="0"
           y="0"
           width="100%"
           height="100%" />
      </g>
      <path
         fill="#333333"
         d="m 27,0 v -27 h 64 v -190 l -56,39 v -29 l 58,-41 h 29 v 221 h 61 V 0 H 27"
         id="v" />
      <path
         fill="#333333"
         d="m 54,-142 c 48,-35 137,-8 131,61 C 196,18 31,33 14,-55 l 32,-4 c 7,23 22,37 52,37 35,-1 51,-22 54,-58 4,-55 -73,-65 -99,-34 H 22 l 8,-134 h 141 v 27 H 59"
         id="w" />
      <path
         fill="#333333"
         d="m 16,-82 v -28 h 88 v 28 H 16"
         id="x" />
      <path
         fill="#333333"
         d="m 110,-160 c 48,1 74,30 74,79 0,53 -28,85 -80,85 -65,0 -83,-55 -86,-122 -5,-90 50,-162 133,-122 14,7 22,21 27,39 l -31,6 c -5,-40 -67,-38 -82,-6 -9,19 -15,44 -15,74 11,-20 30,-34 60,-33 z m -7,138 c 34,0 49,-23 49,-58 0,-35 -16,-56 -50,-56 -29,0 -50,16 -49,49 1,36 15,65 50,65"
         id="y" />
      <g
         id="d">
        <use
           transform="scale(0.0617284)"
           xlink:href="#v"
           id="use152"
           x="0"
           y="0"
           width="100%"
           height="100%" />
        <use
           transform="matrix(0.0617284,0,0,0.0617284,12.345679,0)"
           xlink:href="#w"
           id="use154"
           x="0"
           y="0"
           width="100%"
           height="100%" />
        <use
           transform="matrix(0.0617284,0,0,0.0617284,24.691358,0)"
           xlink:href="#x"
           id="use156"
           x="0"
           y="0"
           width="100%"
           height="100%" />
        <use
           transform="matrix(0.0617284,0,0,0.0617284,32.037037,0)"
           xlink:href="#v"
           id="use158"
           x="0"
           y="0"
           width="100%"
           height="100%" />
        <use
           transform="matrix(0.0617284,0,0,0.0617284,44.382716,0)"
           xlink:href="#q"
           id="use160"
           x="0"
           y="0"
           width="100%"
           height="100%" />
        <use
           transform="matrix(0.0617284,0,0,0.0617284,56.728395,0)"
           xlink:href="#x"
           id="use162"
           x="0"
           y="0"
           width="100%"
           height="100%" />
        <use
           transform="matrix(0.0617284,0,0,0.0617284,64.074074,0)"
           xlink:href="#p"
           id="use164"
           x="0"
           y="0"
           width="100%"
           height="100%" />
        <use
           transform="matrix(0.0617284,0,0,0.0617284,76.419753,0)"
           xlink:href="#y"
           id="use166"
           x="0"
           y="0"
           width="100%"
           height="100%" />
      </g>
      <path
         fill="#333333"
         d="m 64,0 c 3,-98 48,-159 88,-221 H 18 v -27 h 164 v 26 C 143,-157 98,-101 97,0 H 64"
         id="z" />
      <g
         id="e">
        <use
           transform="scale(0.0617284)"
           xlink:href="#v"
           id="use170"
           x="0"
           y="0"
           width="100%"
           height="100%" />
        <use
           transform="matrix(0.0617284,0,0,0.0617284,12.345679,0)"
           xlink:href="#w"
           id="use172"
           x="0"
           y="0"
           width="100%"
           height="100%" />
        <use
           transform="matrix(0.0617284,0,0,0.0617284,24.691358,0)"
           xlink:href="#x"
           id="use174"
           x="0"
           y="0"
           width="100%"
           height="100%" />
        <use
           transform="matrix(0.0617284,0,0,0.0617284,32.037037,0)"
           xlink:href="#q"
           id="use176"
           x="0"
           y="0"
           width="100%"
           height="100%" />
        <use
           transform="matrix(0.0617284,0,0,0.0617284,44.382716,0)"
           xlink:href="#v"
           id="use178"
           x="0"
           y="0"
           width="100%"
           height="100%" />
        <use
           transform="matrix(0.0617284,0,0,0.0617284,56.728395,0)"
           xlink:href="#x"
           id="use180"
           x="0"
           y="0"
           width="100%"
           height="100%" />
        <use
           transform="matrix(0.0617284,0,0,0.0617284,64.074074,0)"
           xlink:href="#p"
           id="use182"
           x="0"
           y="0"
           width="100%"
           height="100%" />
        <use
           transform="matrix(0.0617284,0,0,0.0617284,76.419753,0)"
           xlink:href="#z"
           id="use184"
           x="0"
           y="0"
           width="100%"
           height="100%" />
      </g>
      <path
         fill="#333333"
         d="M 155,-56 V 0 H 125 V -56 H 8 v -25 l 114,-167 h 33 v 167 h 35 v 25 z m -30,-156 c -27,46 -58,90 -88,131 h 88 v -131"
         id="A" />
      <g
         id="f">
        <use
           transform="scale(0.0617284)"
           xlink:href="#v"
           id="use188"
           x="0"
           y="0"
           width="100%"
           height="100%" />
        <use
           transform="matrix(0.0617284,0,0,0.0617284,12.345679,0)"
           xlink:href="#w"
           id="use190"
           x="0"
           y="0"
           width="100%"
           height="100%" />
        <use
           transform="matrix(0.0617284,0,0,0.0617284,24.691358,0)"
           xlink:href="#x"
           id="use192"
           x="0"
           y="0"
           width="100%"
           height="100%" />
        <use
           transform="matrix(0.0617284,0,0,0.0617284,32.037037,0)"
           xlink:href="#q"
           id="use194"
           x="0"
           y="0"
           width="100%"
           height="100%" />
        <use
           transform="matrix(0.0617284,0,0,0.0617284,44.382716,0)"
           xlink:href="#A"
           id="use196"
           x="0"
           y="0"
           width="100%"
           height="100%" />
        <use
           transform="matrix(0.0617284,0,0,0.0617284,56.728395,0)"
           xlink:href="#x"
           id="use198"
           x="0"
           y="0"
           width="100%"
           height="100%" />
        <use
           transform="matrix(0.0617284,0,0,0.0617284,64.074074,0)"
           xlink:href="#p"
           id="use200"
           x="0"
           y="0"
           width="100%"
           height="100%" />
        <use
           transform="matrix(0.0617284,0,0,0.0617284,76.419753,0)"
           xlink:href="#z"
           id="use202"
           x="0"
           y="0"
           width="100%"
           height="100%" />
      </g>
      <g
         id="g">
        <use
           transform="scale(0.0617284)"
           xlink:href="#v"
           id="use205"
           x="0"
           y="0"
           width="100%"
           height="100%" />
        <use
           transform="matrix(0.0617284,0,0,0.0617284,12.345679,0)"
           xlink:href="#w"
           id="use207"
           x="0"
           y="0"
           width="100%"
           height="100%" />
        <use
           transform="matrix(0.0617284,0,0,0.0617284,24.691358,0)"
           xlink:href="#x"
           id="use209"
           x="0"
           y="0"
           width="100%"
           height="100%" />
        <use
           transform="matrix(0.0617284,0,0,0.0617284,32.037037,0)"
           xlink:href="#q"
           id="use211"
           x="0"
           y="0"
           width="100%"
           height="100%" />
        <use
           transform="matrix(0.0617284,0,0,0.0617284,44.382716,0)"
           xlink:href="#z"
           id="use213"
           x="0"
           y="0"
           width="100%"
           height="100%" />
        <use
           transform="matrix(0.0617284,0,0,0.0617284,56.728395,0)"
           xlink:href="#x"
           id="use215"
           x="0"
           y="0"
           width="100%"
           height="100%" />
        <use
           transform="matrix(0.0617284,0,0,0.0617284,64.074074,0)"
           xlink:href="#p"
           id="use217"
           x="0"
           y="0"
           width="100%"
           height="100%" />
        <use
           transform="matrix(0.0617284,0,0,0.0617284,76.419753,0)"
           xlink:href="#z"
           id="use219"
           x="0"
           y="0"
           width="100%"
           height="100%" />
      </g>
      <g
         id="h">
        <use
           transform="scale(0.0617284)"
           xlink:href="#v"
           id="use222"
           x="0"
           y="0"
           width="100%"
           height="100%" />
        <use
           transform="matrix(0.0617284,0,0,0.0617284,12.345679,0)"
           xlink:href="#w"
           id="use224"
           x="0"
           y="0"
           width="100%"
           height="100%" />
        <use
           transform="matrix(0.0617284,0,0,0.0617284,24.691358,0)"
           xlink:href="#x"
           id="use226"
           x="0"
           y="0"
           width="100%"
           height="100%" />
        <use
           transform="matrix(0.0617284,0,0,0.0617284,32.037037,0)"
           xlink:href="#v"
           id="use228"
           x="0"
           y="0"
           width="100%"
           height="100%" />
        <use
           transform="matrix(0.0617284,0,0,0.0617284,44.382716,0)"
           xlink:href="#q"
           id="use230"
           x="0"
           y="0"
           width="100%"
           height="100%" />
        <use
           transform="matrix(0.0617284,0,0,0.0617284,56.728395,0)"
           xlink:href="#x"
           id="use232"
           x="0"
           y="0"
           width="100%"
           height="100%" />
        <use
           transform="matrix(0.0617284,0,0,0.0617284,64.074074,0)"
           xlink:href="#p"
           id="use234"
           x="0"
           y="0"
           width="100%"
           height="100%" />
        <use
           transform="matrix(0.0617284,0,0,0.0617284,76.419753,0)"
           xlink:href="#z"
           id="use236"
           x="0"
           y="0"
           width="100%"
           height="100%" />
      </g>
      <path
         fill="#333333"
         d="m 134,-131 c 28,9 52,24 51,62 -1,50 -34,73 -85,73 -51,0 -83,-23 -84,-73 0,-36 21,-54 49,-61 -75,-25 -45,-126 34,-121 46,3 78,18 79,63 0,33 -17,51 -44,57 z m -34,-11 c 31,1 46,-15 46,-44 0,-28 -17,-43 -47,-42 -29,0 -46,13 -45,42 1,28 16,44 46,44 z m 1,122 c 35,0 51,-18 51,-52 0,-30 -18,-46 -53,-46 -33,0 -51,17 -51,47 0,34 19,51 53,51"
         id="B" />
      <g
         id="i">
        <use
           transform="scale(0.0617284)"
           xlink:href="#v"
           id="use240"
           x="0"
           y="0"
           width="100%"
           height="100%" />
        <use
           transform="matrix(0.0617284,0,0,0.0617284,12.345679,0)"
           xlink:href="#w"
           id="use242"
           x="0"
           y="0"
           width="100%"
           height="100%" />
        <use
           transform="matrix(0.0617284,0,0,0.0617284,24.691358,0)"
           xlink:href="#x"
           id="use244"
           x="0"
           y="0"
           width="100%"
           height="100%" />
        <use
           transform="matrix(0.0617284,0,0,0.0617284,32.037037,0)"
           xlink:href="#q"
           id="use246"
           x="0"
           y="0"
           width="100%"
           height="100%" />
        <use
           transform="matrix(0.0617284,0,0,0.0617284,44.382716,0)"
           xlink:href="#v"
           id="use248"
           x="0"
           y="0"
           width="100%"
           height="100%" />
        <use
           transform="matrix(0.0617284,0,0,0.0617284,56.728395,0)"
           xlink:href="#x"
           id="use250"
           x="0"
           y="0"
           width="100%"
           height="100%" />
        <use
           transform="matrix(0.0617284,0,0,0.0617284,64.074074,0)"
           xlink:href="#p"
           id="use252"
           x="0"
           y="0"
           width="100%"
           height="100%" />
        <use
           transform="matrix(0.0617284,0,0,0.0617284,76.419753,0)"
           xlink:href="#B"
           id="use254"
           x="0"
           y="0"
           width="100%"
           height="100%" />
      </g>
      <g
         id="j">
        <use
           transform="scale(0.0617284)"
           xlink:href="#v"
           id="use257"
           x="0"
           y="0"
           width="100%"
           height="100%" />
        <use
           transform="matrix(0.0617284,0,0,0.0617284,12.345679,0)"
           xlink:href="#w"
           id="use259"
           x="0"
           y="0"
           width="100%"
           height="100%" />
        <use
           transform="matrix(0.0617284,0,0,0.0617284,24.691358,0)"
           xlink:href="#x"
           id="use261"
           x="0"
           y="0"
           width="100%"
           height="100%" />
        <use
           transform="matrix(0.0617284,0,0,0.0617284,32.037037,0)"
           xlink:href="#q"
           id="use263"
           x="0"
           y="0"
           width="100%"
           height="100%" />
        <use
           transform="matrix(0.0617284,0,0,0.0617284,44.382716,0)"
           xlink:href="#A"
           id="use265"
           x="0"
           y="0"
           width="100%"
           height="100%" />
        <use
           transform="matrix(0.0617284,0,0,0.0617284,56.728395,0)"
           xlink:href="#x"
           id="use267"
           x="0"
           y="0"
           width="100%"
           height="100%" />
        <use
           transform="matrix(0.0617284,0,0,0.0617284,64.074074,0)"
           xlink:href="#p"
           id="use269"
           x="0"
           y="0"
           width="100%"
           height="100%" />
        <use
           transform="matrix(0.0617284,0,0,0.0617284,76.419753,0)"
           xlink:href="#B"
           id="use271"
           x="0"
           y="0"
           width="100%"
           height="100%" />
      </g>
    </defs>
  </g>
</svg>
