<?xml version="1.0" encoding="UTF-8" standalone="no"?>
<!-- Created with Inkscape (http://www.inkscape.org/) -->

<svg
   xmlns:dc="http://purl.org/dc/elements/1.1/"
   xmlns:cc="http://creativecommons.org/ns#"
   xmlns:rdf="http://www.w3.org/1999/02/22-rdf-syntax-ns#"
   xmlns:svg="http://www.w3.org/2000/svg"
   xmlns="http://www.w3.org/2000/svg"
   xmlns:sodipodi="http://sodipodi.sourceforge.net/DTD/sodipodi-0.dtd"
   xmlns:inkscape="http://www.inkscape.org/namespaces/inkscape"
   width="297mm"
   height="210mm"
   viewBox="0 0 297 210"
   version="1.1"
   id="svg5333"
   inkscape:version="0.92.4 (5da689c313, 2019-01-14)"
   sodipodi:docname="Capitulo6Ejemplo1.2.svg">
  <defs
     id="defs5327">
    <pattern
       y="0"
       x="0"
       height="6"
       width="6"
       patternUnits="userSpaceOnUse"
       id="EMFhbasepattern" />
  </defs>
  <sodipodi:namedview
     id="base"
     pagecolor="#ffffff"
     bordercolor="#666666"
     borderopacity="1.0"
     inkscape:pageopacity="0.0"
     inkscape:pageshadow="2"
     inkscape:zoom="0.98994949"
     inkscape:cx="616.06903"
     inkscape:cy="449.79535"
     inkscape:document-units="mm"
     inkscape:current-layer="layer1"
     showgrid="false"
     inkscape:window-width="1366"
     inkscape:window-height="705"
     inkscape:window-x="-8"
     inkscape:window-y="-8"
     inkscape:window-maximized="1" />
  <metadata
     id="metadata5330">
    <rdf:RDF>
      <cc:Work
         rdf:about="">
        <dc:format>image/svg+xml</dc:format>
        <dc:type
           rdf:resource="http://purl.org/dc/dcmitype/StillImage" />
        <dc:title></dc:title>
      </cc:Work>
    </rdf:RDF>
  </metadata>
  <g
     inkscape:label="Capa 1"
     inkscape:groupmode="layer"
     id="layer1"
     transform="translate(0,-87)"
     style="display:inline">
    <path
       inkscape:connector-curvature="0"
       id="path1325"
       d="M 97.343653,157.89313 211.30083,208.15398"
       style="display:inline;fill:none;stroke:#0c7cba;stroke-width:0.66500002;stroke-linecap:butt;stroke-linejoin:miter;stroke-miterlimit:4;stroke-dasharray:none;stroke-opacity:1" />
    <path
       sodipodi:nodetypes="csc"
       inkscape:connector-curvature="0"
       id="path1335"
       d="m 201.58599,216.21107 c 0,0 1.96872,16.62108 -32.29919,17.12396 -34.259,0.50275 -75.898467,-0.0262 -82.90124,-32.55113"
       style="display:inline;fill:none;stroke:#0c7cba;stroke-width:0.67367309;stroke-linecap:butt;stroke-linejoin:miter;stroke-miterlimit:4;stroke-dasharray:2.02101929, 2.02101929;stroke-dashoffset:0;stroke-opacity:1" />
    <g
       style="display:inline"
       id="g1368-14"
       transform="matrix(-0.99998768,-0.00588937,0.00861313,-2.059181,198.45348,551.82554)">
      <path
         style="fill:none;stroke:#000000;stroke-width:0.565;stroke-linecap:butt;stroke-linejoin:miter;stroke-miterlimit:4;stroke-dasharray:none;stroke-opacity:1"
         d="m 100.09244,174.7242 0.26727,12.56166"
         id="path1329-81"
         inkscape:connector-curvature="0" />
      <text
         id="text1350-76"
         y="189.98271"
         x="98.743851"
         style="font-style:normal;font-variant:normal;font-weight:400;font-size:3.88606763px;line-height:125%;font-family:'Segoe UI Emoji';text-align:start;letter-spacing:0px;word-spacing:0px;text-anchor:start;fill:#000000;fill-opacity:1;stroke:none;stroke-width:0.26458332"
         xml:space="preserve"><tspan
           id="tspan1348-63"
           y="189.98271"
           x="98.743851"
           sodipodi:role="line"
           style="stroke-width:0.26458332"><tspan
             id="tspan1344-4"
             style="font-style:normal;font-variant:normal;font-weight:400;font-size:3.88606763px;font-family:'Segoe UI Emoji';fill:#000000;stroke-width:0.26458332"
             dy="0"
             dx="0">▼</tspan><tspan
             id="tspan1346-46"
             style="font-style:normal;font-variant:normal;font-weight:400;font-size:3.88606763px;font-family:Calibri;fill:#000000;stroke-width:0.26458332"
             dy="0"
             dx="0"> </tspan></tspan></text>
    </g>
    <g
       style="display:inline"
       id="g1683"
       transform="matrix(0.86682303,0,0,1,7.5861606,18.321965)">
      <path
         style="fill:none;stroke:#000000;stroke-width:0.565;stroke-linecap:butt;stroke-linejoin:miter;stroke-miterlimit:4;stroke-dasharray:none;stroke-opacity:1"
         d="m 89.26802,174.32329 c 149.67093,0.26727 149.67093,0.26727 149.67093,0.26727"
         id="path514"
         inkscape:connector-curvature="0" />
      <text
         id="text1665"
         y="142.8988"
         x="296.71558"
         style="font-style:normal;font-variant:normal;font-weight:400;font-size:7.60175419px;line-height:125%;font-family:'Segoe UI Emoji';text-align:start;letter-spacing:0px;word-spacing:0px;text-anchor:start;fill:#000000;fill-opacity:1;stroke:none;stroke-width:0.51756626"
         xml:space="preserve"
         transform="scale(0.80391189,1.2439174)"><tspan
           id="tspan1663"
           y="142.8988"
           x="296.71558"
           sodipodi:role="line"
           style="stroke-width:0.51756626"><tspan
             id="tspan1659"
             style="font-style:normal;font-variant:normal;font-weight:400;font-size:7.60175419px;font-family:'Segoe UI Emoji';fill:#000000;stroke-width:0.51756626"
             dy="0"
             dx="0">►</tspan><tspan
             id="tspan1661"
             style="font-style:normal;font-variant:normal;font-weight:400;font-size:7.60175419px;font-family:Calibri;fill:#000000;stroke-width:0.51756626"
             dy="0"
             dx="0"> </tspan></tspan></text>
    </g>
    <text
       transform="scale(0.96962495,1.0313266)"
       id="text1787"
       y="193.61713"
       x="86.533089"
       style="font-style:normal;font-weight:normal;font-size:4.61203337px;line-height:1.25;font-family:sans-serif;letter-spacing:0px;word-spacing:0px;display:inline;fill:#000000;fill-opacity:1;stroke:none;stroke-width:0.11530083"
       xml:space="preserve"><tspan
         style="stroke-width:0.11530083"
         y="193.61713"
         x="86.533089"
         id="tspan1785"
         sodipodi:role="line">0</tspan></text>
    <text
       transform="scale(0.96962495,1.0313266)"
       id="text1787-5"
       y="193.78171"
       x="101.73299"
       style="font-style:normal;font-weight:normal;font-size:4.61203337px;line-height:1.25;font-family:sans-serif;letter-spacing:0px;word-spacing:0px;display:inline;fill:#000000;fill-opacity:1;stroke:none;stroke-width:0.11530083"
       xml:space="preserve"><tspan
         id="tspan1879"
         style="stroke-width:0.11530083"
         y="193.78171"
         x="101.73299"
         sodipodi:role="line">1</tspan></text>
    <text
       transform="scale(0.96962495,1.0313266)"
       id="text1787-3"
       y="192.87468"
       x="122.95743"
       style="font-style:normal;font-weight:normal;font-size:4.61203337px;line-height:1.25;font-family:sans-serif;letter-spacing:0px;word-spacing:0px;display:inline;fill:#000000;fill-opacity:1;stroke:none;stroke-width:0.11530083"
       xml:space="preserve"><tspan
         style="stroke-width:0.11530083"
         y="192.87468"
         x="122.95743"
         id="tspan1785-2"
         sodipodi:role="line">2</tspan></text>
    <text
       transform="scale(0.96962495,1.0313266)"
       id="text1787-1"
       y="192.7451"
       x="142.94153"
       style="font-style:normal;font-weight:normal;font-size:4.61203337px;line-height:1.25;font-family:sans-serif;letter-spacing:0px;word-spacing:0px;display:inline;fill:#000000;fill-opacity:1;stroke:none;stroke-width:0.11530083"
       xml:space="preserve"><tspan
         style="stroke-width:0.11530083"
         y="192.7451"
         x="142.94153"
         id="tspan1785-7"
         sodipodi:role="line">3</tspan></text>
    <text
       transform="scale(0.96962495,1.0313266)"
       id="text1787-34"
       y="194.17043"
       x="161.13387"
       style="font-style:normal;font-weight:normal;font-size:4.61203337px;line-height:1.25;font-family:sans-serif;letter-spacing:0px;word-spacing:0px;display:inline;fill:#000000;fill-opacity:1;stroke:none;stroke-width:0.11530083"
       xml:space="preserve"><tspan
         style="stroke-width:0.11530083"
         y="194.17043"
         x="161.13387"
         id="tspan1785-74"
         sodipodi:role="line">4</tspan></text>
    <text
       transform="scale(0.96962495,1.0313266)"
       id="text1787-14"
       y="196.37321"
       x="189.52502"
       style="font-style:normal;font-weight:normal;font-size:4.61203337px;line-height:1.25;font-family:sans-serif;letter-spacing:0px;word-spacing:0px;display:inline;fill:#000000;fill-opacity:1;stroke:none;stroke-width:0.11530083"
       xml:space="preserve"><tspan
         style="stroke-width:0.11530083"
         y="196.37321"
         x="189.52502"
         id="tspan1785-3"
         sodipodi:role="line">5</tspan></text>
    <text
       transform="scale(0.96962495,1.0313266)"
       id="text1787-2"
       y="193.91127"
       x="220.12131"
       style="font-style:normal;font-weight:normal;font-size:4.61203337px;line-height:1.25;font-family:sans-serif;letter-spacing:0px;word-spacing:0px;display:inline;fill:#000000;fill-opacity:1;stroke:none;stroke-width:0.11530083"
       xml:space="preserve"><tspan
         style="stroke-width:0.11530083"
         y="193.91127"
         x="220.12131"
         id="tspan1785-4"
         sodipodi:role="line">6   pav</tspan></text>
    <g
       style="display:inline"
       id="g1368-14-4"
       transform="matrix(-0.99998768,-0.00438753,0.00861313,-1.534074,218.18536,460.54347)">
      <path
         style="fill:none;stroke:#000000;stroke-width:0.565;stroke-linecap:butt;stroke-linejoin:miter;stroke-miterlimit:4;stroke-dasharray:none;stroke-opacity:1"
         d="m 100.09244,174.7242 0.26727,12.56166"
         id="path1329-81-2"
         inkscape:connector-curvature="0" />
      <text
         id="text1350-76-5"
         y="189.98271"
         x="98.743851"
         style="font-style:normal;font-variant:normal;font-weight:400;font-size:3.88606763px;line-height:125%;font-family:'Segoe UI Emoji';text-align:start;letter-spacing:0px;word-spacing:0px;text-anchor:start;fill:#000000;fill-opacity:1;stroke:none;stroke-width:0.26458332"
         xml:space="preserve"><tspan
           id="tspan1348-63-4"
           y="189.98271"
           x="98.743851"
           sodipodi:role="line"
           style="stroke-width:0.26458332"><tspan
             id="tspan1344-4-8"
             style="font-style:normal;font-variant:normal;font-weight:400;font-size:3.88606763px;font-family:'Segoe UI Emoji';fill:#000000;stroke-width:0.26458332"
             dy="0"
             dx="0">▼</tspan><tspan
             id="tspan1346-46-8"
             style="font-style:normal;font-variant:normal;font-weight:400;font-size:3.88606763px;font-family:Calibri;fill:#000000;stroke-width:0.26458332"
             dy="0"
             dx="0"> </tspan></tspan></text>
    </g>
    <g
       style="display:inline"
       id="g1368-14-3"
       transform="matrix(0.999879,0.01136715,-0.02145144,0.80782588,109.02029,50.687451)">
      <path
         style="fill:none;stroke:#000000;stroke-width:0.565;stroke-linecap:butt;stroke-linejoin:miter;stroke-miterlimit:4;stroke-dasharray:none;stroke-opacity:1"
         d="m 100.09244,174.7242 0.26727,12.56166"
         id="path1329-81-4"
         inkscape:connector-curvature="0" />
      <text
         id="text1350-76-4"
         y="189.98271"
         x="98.743851"
         style="font-style:normal;font-variant:normal;font-weight:400;font-size:3.88606763px;line-height:125%;font-family:'Segoe UI Emoji';text-align:start;letter-spacing:0px;word-spacing:0px;text-anchor:start;fill:#000000;fill-opacity:1;stroke:none;stroke-width:0.26458332"
         xml:space="preserve"><tspan
           id="tspan1348-63-6"
           y="189.98271"
           x="98.743851"
           sodipodi:role="line"
           style="stroke-width:0.26458332"><tspan
             id="tspan1344-4-1"
             style="font-style:normal;font-variant:normal;font-weight:400;font-size:3.88606763px;font-family:'Segoe UI Emoji';fill:#000000;stroke-width:0.26458332"
             dy="0"
             dx="0">▼</tspan><tspan
             id="tspan1346-46-6"
             style="font-style:normal;font-variant:normal;font-weight:400;font-size:3.88606763px;font-family:Calibri;fill:#000000;stroke-width:0.26458332"
             dy="0"
             dx="0"> </tspan></tspan></text>
    </g>
    <g
       style="display:inline"
       id="g1368-14-2"
       transform="matrix(-0.99998768,-0.00215982,0.00861313,-0.75516499,295.02535,284.59021)">
      <text
         id="text4655"
         y="-130.37617"
         x="-19.593887"
         transform="matrix(-0.5963577,0.82970054,-0.63214825,-0.79735074,0,0)"
         style="font-style:normal;font-variant:normal;font-weight:400;font-size:4.47184515px;line-height:125%;font-family:'Segoe UI Emoji';text-align:start;letter-spacing:0px;word-spacing:0px;text-anchor:start;fill:#0c7cba;fill-opacity:1;stroke:none;stroke-width:0.30446607"
         xml:space="preserve"><tspan
           id="tspan4653"
           y="-130.37617"
           x="-19.593887"
           sodipodi:role="line"
           style="fill:#0c7cba;fill-opacity:1;stroke-width:0.30446607"><tspan
             id="tspan4649"
             style="font-style:normal;font-variant:normal;font-weight:400;font-size:4.47184515px;font-family:'Segoe UI Emoji';fill:#0c7cba;fill-opacity:1;stroke-width:0.30446607"
             dy="0"
             dx="0">▼</tspan><tspan
             id="tspan4651"
             style="font-style:normal;font-variant:normal;font-weight:400;font-size:4.47184515px;font-family:Calibri;fill:#0c7cba;fill-opacity:1;stroke-width:0.30446607"
             dy="0"
             dx="0"> </tspan></tspan></text>
      <g
         id="g6292"
         transform="translate(94.17387,-37.307922)">
        <path
           inkscape:connector-curvature="0"
           id="path1329-81-6"
           d="m 61.86778,158.73561 0.3064,17.10445"
           style="display:inline;fill:none;stroke:#000000;stroke-width:0.65929139;stroke-linecap:butt;stroke-linejoin:miter;stroke-miterlimit:4;stroke-dasharray:none;stroke-opacity:1" />
        <text
           xml:space="preserve"
           style="font-style:normal;font-variant:normal;font-weight:400;font-size:3.88606763px;line-height:125%;font-family:'Segoe UI Emoji';text-align:start;letter-spacing:0px;word-spacing:0px;text-anchor:start;display:inline;fill:#000000;fill-opacity:1;stroke:none;stroke-width:0.26458332"
           x="60.679375"
           y="178.28894"
           id="text1350-76-9"><tspan
             style="stroke-width:0.26458332"
             sodipodi:role="line"
             x="60.679375"
             y="178.28894"
             id="tspan1348-63-1"><tspan
               dx="0"
               dy="0"
               style="font-style:normal;font-variant:normal;font-weight:400;font-size:3.88606763px;font-family:'Segoe UI Emoji';fill:#000000;stroke-width:0.26458332"
               id="tspan1344-4-7">▼</tspan><tspan
               dx="0"
               dy="0"
               style="font-style:normal;font-variant:normal;font-weight:400;font-size:3.88606763px;font-family:Calibri;fill:#000000;stroke-width:0.26458332"
               id="tspan1346-46-9"> </tspan></tspan></text>
      </g>
    </g>
    <g
       style="display:inline"
       id="g1368-14-17"
       transform="matrix(-0.99998768,-0.00118362,0.00861313,-0.41384542,256.53855,264.76484)">
      <path
         style="fill:none;stroke:#000000;stroke-width:0.565;stroke-linecap:butt;stroke-linejoin:miter;stroke-miterlimit:4;stroke-dasharray:none;stroke-opacity:1"
         d="m 100.09244,174.7242 0.26727,12.56166"
         id="path1329-81-65"
         inkscape:connector-curvature="0" />
      <text
         id="text1350-76-98"
         y="189.98271"
         x="98.743851"
         style="font-style:normal;font-variant:normal;font-weight:400;font-size:3.88606763px;line-height:125%;font-family:'Segoe UI Emoji';text-align:start;letter-spacing:0px;word-spacing:0px;text-anchor:start;fill:#000000;fill-opacity:1;stroke:none;stroke-width:0.26458332"
         xml:space="preserve"><tspan
           id="tspan1348-63-0"
           y="189.98271"
           x="98.743851"
           sodipodi:role="line"
           style="stroke-width:0.26458332"><tspan
             id="tspan1344-4-9"
             style="font-style:normal;font-variant:normal;font-weight:400;font-size:3.88606763px;font-family:'Segoe UI Emoji';fill:#000000;stroke-width:0.26458332"
             dy="0"
             dx="0">▼</tspan><tspan
             id="tspan1346-46-7"
             style="font-style:normal;font-variant:normal;font-weight:400;font-size:3.88606763px;font-family:Calibri;fill:#000000;stroke-width:0.26458332"
             dy="0"
             dx="0"> </tspan></tspan></text>
    </g>
    <text
       id="text4166"
       y="219.06502"
       x="131.92043"
       style="font-style:normal;font-variant:normal;font-weight:400;font-size:6.3499999px;line-height:125%;font-family:'Cambria Math';text-align:start;letter-spacing:0px;word-spacing:0px;text-anchor:start;display:inline;fill:#000000;fill-opacity:1;stroke:none;stroke-width:0.26458332"
       xml:space="preserve"><tspan
         id="tspan4164"
         y="219.06502"
         x="131.92043"
         sodipodi:role="line"
         style="font-size:6.3499999px;stroke-width:0.26458332">L=- $25</tspan></text>
    <text
       id="text4201"
       y="227.61761"
       x="132.45494"
       style="font-style:normal;font-variant:normal;font-weight:400;font-size:3.88606763px;line-height:125%;font-family:'Cambria Math';text-align:start;letter-spacing:0px;word-spacing:0px;text-anchor:start;display:inline;fill:#000000;fill-opacity:1;stroke:none;stroke-width:0.26458332"
       xml:space="preserve"><tspan
         id="tspan4199"
         y="227.61761"
         x="132.45494"
         sodipodi:role="line"
         style="font-size:6.3499999px;stroke-width:0.26458332">n=6 pav</tspan></text>
    <text
       id="text4479"
       y="161.26599"
       x="109.94239"
       style="font-style:normal;font-variant:normal;font-weight:400;font-size:4.94440174px;line-height:125%;font-family:'Cambria Math';text-align:start;letter-spacing:0px;word-spacing:0px;text-anchor:start;display:inline;fill:#000000;fill-opacity:1;stroke:none;stroke-width:0.26458332"
       xml:space="preserve"><tspan
         id="tspan4477"
         y="161.26599"
         x="109.94239"
         sodipodi:role="line"
         style="stroke-width:0.26458332"><tspan
           id="tspan4467"
           style="font-style:normal;font-variant:normal;font-weight:400;font-size:4.94440174px;font-family:'Cambria Math';fill:#000000;stroke-width:0.26458332"
           dy="0"
           dx="0">𝑅</tspan><tspan
           id="tspan4469"
           style="font-style:normal;font-variant:normal;font-weight:400;font-size:3.52226567px;font-family:'Cambria Math';fill:#000000;stroke-width:0.26458332"
           dy="0.98760146"
           dx="0">2</tspan><tspan
           id="tspan4471"
           style="font-style:normal;font-variant:normal;font-weight:400;font-size:4.94440174px;font-family:'Cambria Math';fill:#000000;stroke-width:0.26458332"
           dy="-0.98760146"
           dx="1.5768315">=</tspan><tspan
           id="tspan4473"
           style="font-style:normal;font-variant:normal;font-weight:400;font-size:4.94440174px;font-family:'Cambria Math';fill:#000000;stroke-width:0.26458332"
           dy="0"
           dx="2.3413246">$75</tspan><tspan
           id="tspan4475"
           style="font-style:normal;font-variant:normal;font-weight:400;font-size:4.94440174px;font-family:Arial;fill:#000000;stroke-width:0.26458332"
           dy="0"
           dx="0"> </tspan></tspan></text>
    <text
       id="text4510"
       y="169.80489"
       x="129.45306"
       style="font-style:normal;font-variant:normal;font-weight:400;font-size:4.94440174px;line-height:125%;font-family:'Cambria Math';text-align:start;letter-spacing:0px;word-spacing:0px;text-anchor:start;display:inline;fill:#000000;fill-opacity:1;stroke:none;stroke-width:0.26458332"
       xml:space="preserve"><tspan
         id="tspan4508"
         y="169.80489"
         x="129.45306"
         sodipodi:role="line"
         style="stroke-width:0.26458332"><tspan
           id="tspan4498"
           style="font-style:normal;font-variant:normal;font-weight:400;font-size:4.94440174px;font-family:'Cambria Math';fill:#000000;stroke-width:0.26458332"
           dy="0"
           dx="0">𝑅</tspan><tspan
           id="tspan4500"
           style="font-style:normal;font-variant:normal;font-weight:400;font-size:3.52226567px;font-family:'Cambria Math';fill:#000000;stroke-width:0.26458332"
           dy="0.98760146"
           dx="0">3</tspan><tspan
           id="tspan4502"
           style="font-style:normal;font-variant:normal;font-weight:400;font-size:4.94440174px;font-family:'Cambria Math';fill:#000000;stroke-width:0.26458332"
           dy="-0.98760146"
           dx="1.5768315">=</tspan><tspan
           id="tspan4504"
           style="font-style:normal;font-variant:normal;font-weight:400;font-size:4.94440174px;font-family:'Cambria Math';fill:#000000;stroke-width:0.26458332"
           dy="0"
           dx="2.3413246">$50</tspan><tspan
           id="tspan4506"
           style="font-style:normal;font-variant:normal;font-weight:400;font-size:4.94440174px;font-family:Arial;fill:#000000;stroke-width:0.26458332"
           dy="0"
           dx="0"> </tspan></tspan></text>
    <text
       id="text4543"
       y="179.84123"
       x="154.44276"
       style="font-style:normal;font-variant:normal;font-weight:400;font-size:4.94440174px;line-height:125%;font-family:'Cambria Math';text-align:start;letter-spacing:0px;word-spacing:0px;text-anchor:start;display:inline;fill:#000000;fill-opacity:1;stroke:none;stroke-width:0.26458332"
       xml:space="preserve"><tspan
         id="tspan4541"
         y="179.84123"
         x="154.44276"
         sodipodi:role="line"
         style="stroke-width:0.26458332"><tspan
           id="tspan4529"
           style="font-style:normal;font-variant:normal;font-weight:400;font-size:4.94440174px;font-family:'Cambria Math';fill:#000000;stroke-width:0.26458332"
           dy="0"
           dx="0">𝑅</tspan><tspan
           id="tspan4531"
           style="font-style:normal;font-variant:normal;font-weight:400;font-size:3.52226567px;font-family:'Cambria Math';fill:#000000;stroke-width:0.26458332"
           dy="0.98760146"
           dx="0">4</tspan><tspan
           id="tspan4533"
           style="font-style:normal;font-variant:normal;font-weight:400;font-size:4.94440174px;font-family:'Cambria Math';fill:#000000;stroke-width:0.26458332"
           dy="-0.98760146 0 0 0"
           dx="1.5768315 2.3413246 0 0">=$25</tspan><tspan
           id="tspan4539"
           style="font-style:normal;font-variant:normal;font-weight:400;font-size:4.94440174px;font-family:Arial;fill:#000000;stroke-width:0.26458332"
           dy="0"
           dx="0"> </tspan></tspan></text>
    <text
       id="text4575"
       y="189.18192"
       x="172.88435"
       style="font-style:normal;font-variant:normal;font-weight:400;font-size:4.94440174px;line-height:125%;font-family:'Cambria Math';text-align:start;letter-spacing:0px;word-spacing:0px;text-anchor:start;display:inline;fill:#000000;fill-opacity:1;stroke:none;stroke-width:0.26458332"
       xml:space="preserve"><tspan
         id="tspan4573"
         y="189.18192"
         x="172.88435"
         sodipodi:role="line"
         style="stroke-width:0.26458332"><tspan
           id="tspan4563"
           style="font-style:normal;font-variant:normal;font-weight:400;font-size:4.94440174px;font-family:'Cambria Math';fill:#000000;stroke-width:0.26458332"
           dy="0"
           dx="0">𝑅</tspan><tspan
           id="tspan4565"
           style="font-style:normal;font-variant:normal;font-weight:400;font-size:3.52226567px;font-family:'Cambria Math';fill:#000000;stroke-width:0.26458332"
           dy="0.98760146"
           dx="0">5</tspan><tspan
           id="tspan4567"
           style="font-style:normal;font-variant:normal;font-weight:400;font-size:4.94440174px;font-family:'Cambria Math';fill:#000000;stroke-width:0.26458332"
           dy="-0.98760146"
           dx="1.5768315">=</tspan><tspan
           id="tspan4569"
           style="font-style:normal;font-variant:normal;font-weight:400;font-size:4.94440174px;font-family:'Cambria Math';fill:#000000;stroke-width:0.26458332"
           dy="0"
           dx="2.3413246">$0</tspan><tspan
           id="tspan4571"
           style="font-style:normal;font-variant:normal;font-weight:400;font-size:4.94440174px;font-family:Arial;fill:#000000;stroke-width:0.26458332"
           dy="0"
           dx="0"> </tspan></tspan></text>
    <text
       id="text4606"
       y="212.03348"
       x="187.71782"
       style="font-style:normal;font-variant:normal;font-weight:400;font-size:4.94440174px;line-height:125%;font-family:'Cambria Math';text-align:start;letter-spacing:0px;word-spacing:0px;text-anchor:start;display:inline;fill:#000000;fill-opacity:1;stroke:none;stroke-width:0.26458332"
       xml:space="preserve"><tspan
         id="tspan4604"
         y="212.03348"
         x="187.71782"
         sodipodi:role="line"
         style="stroke-width:0.26458332"><tspan
           id="tspan4594"
           style="font-style:normal;font-variant:normal;font-weight:400;font-size:4.94440174px;font-family:'Cambria Math';fill:#000000;stroke-width:0.26458332"
           dy="0"
           dx="0">𝑅</tspan><tspan
           id="tspan4596"
           style="font-style:normal;font-variant:normal;font-weight:400;font-size:3.52226567px;font-family:'Cambria Math';fill:#000000;stroke-width:0.26458332"
           dy="0.98760146"
           dx="0">6</tspan><tspan
           id="tspan4598"
           style="font-style:normal;font-variant:normal;font-weight:400;font-size:4.94440174px;font-family:'Cambria Math';fill:#000000;stroke-width:0.26458332"
           dy="-0.98760146 0 0 0"
           dx="1.5768315 0 0 2.3413246">= -$25</tspan><tspan
           id="tspan4602"
           style="font-style:normal;font-variant:normal;font-weight:400;font-size:4.94440174px;font-family:Arial;fill:#000000;stroke-width:0.26458332"
           dy="0"
           dx="0"> </tspan></tspan></text>
    <text
       id="text6232"
       y="156.96632"
       x="82.609695"
       style="font-style:normal;font-variant:normal;font-weight:400;font-size:4.94440126px;line-height:125%;font-family:'Cambria Math';text-align:start;letter-spacing:0px;word-spacing:0px;text-anchor:start;fill:#000000;fill-opacity:1;stroke:none;stroke-width:0.26458332"
       xml:space="preserve"><tspan
         id="tspan6230"
         y="156.96632"
         x="82.609695"
         sodipodi:role="line"
         style="stroke-width:0.26458332"><tspan
           id="tspan6220"
           style="font-style:normal;font-variant:normal;font-weight:400;font-size:4.94440126px;font-family:'Cambria Math';fill:#000000;stroke-width:0.26458332"
           dy="0"
           dx="0">𝑅</tspan><tspan
           id="tspan6222"
           style="font-style:normal;font-variant:normal;font-weight:400;font-size:3.52226567px;font-family:'Cambria Math';fill:#000000;stroke-width:0.26458332"
           dy="0.98760146"
           dx="-0.18780258">1</tspan><tspan
           id="tspan6224"
           style="font-style:normal;font-variant:normal;font-weight:400;font-size:4.94440126px;font-family:'Cambria Math';fill:#000000;stroke-width:0.26458332"
           dy="-0.98760146"
           dx="1.7179174">=</tspan><tspan
           id="tspan6226"
           style="font-style:normal;font-variant:normal;font-weight:400;font-size:4.94440126px;font-family:'Cambria Math';fill:#000000;stroke-width:0.26458332"
           dy="0"
           dx="0.093120627">  $100</tspan><tspan
           id="tspan6228"
           style="font-style:normal;font-variant:normal;font-weight:400;font-size:4.94440126px;font-family:Arial;fill:#000000;stroke-width:0.26458332"
           dy="0"
           dx="0"> </tspan></tspan></text>
  </g>
</svg>
